{
  "href": "https://api.spotify.com/v1/me/top/artists",
  "limit": 20,
  "next": "https://api.spotify.com/v1/me/top/artists?limit=20&offset=20",
  "offset": 0,
  "previous": null,
  "total": 50,
  "items": [
    {
      "external_urls": {
        "spotify": "https://open.spotify.com/artist/2otRZcOVNcmdkZ5nEoogy6"
      },
      "followers": {
        "href": null,
        "total": 0
      },
      "genres": [
        "swedish alternative rock",
        "swedish metalcore",
        "trancecore"
      ],
      "href": "https://api.spotify.com/v1/artists/2otRZcOVNcmdkZ5nEoogy6",
      "id": "2otRZcOVNcmdkZ5nEoogy6",
      "images": [
        {
          "height": 640,
          "url": "https://i.scdn.co/image/ab6761610000e5eb52a4f0cf0c3cdc6a070c5a65",
          "width": 640
        },
        {
          "height": 320,
          "url": "https://i.scdn.co/image/ab6761610000517452a4f0cf0c3cdc6a070c5a65",
          "width": 320
        },
        {
          "height": 160,
          "url": "https://i.scdn.co/image/ab6761610000f17852a4f0cf0c3cdc6a070c5a65",
          "width": 160
        }
      ],
      "name": "Dead by April",
      "popularity": 51,
      "type": "artist",
      "uri": "spotify:artist:2otRZcOVNcmdkZ5nEoogy6"
    },
    {
      "external_urls": {
        "spotify": "https://open.spotify.com/artist/0ZMWrgLff357yxLyEU77a1"
      },
      "followers": {
        "href": null,
        "total": 0
      },
      "genres": [
        "indie game soundtrack",
        "video game music"
      ],
      "href": "https://api.spotify.com/v1/artists/0ZMWrgLff357yxLyEU77a1",
      "id": "0ZMWrgLff357yxLyEU77a1",
      "images": [
        {
          "height": 640,
          "url": "https://i.scdn.co/image/ab6761610000e5eb1744a136f481b8e969ea1e04",
          "width": 640
        },
        {
          "height": 320,
          "url": "https://i.scdn.co/image/ab676161000051741744a136f481b8e969ea1e04",
          "width": 320
        },
        {
          "height": 160,
          "url": "https://i.scdn.co/image/ab6761610000f1781744a136f481b8e969ea1e04",
          "width": 160
        }
      ],
      "name": "Darren Korb",
      "popularity": 49,
      "type": "artist",
      "uri": "spotify:artist:0ZMWrgLff357yxLyEU77a1"
    },
    {
      "external_urls": {
        "spotify": "https://open.spotify.com/artist/7vk5e3vY1uw9plTHJAMwjN"
      },
      "followers": {
        "href": null,
        "total": 0
      },
      "genres": [
        "electro house"
      ],
      "href": "https://api.spotify.com/v1/artists/7vk5e3vY1uw9plTHJAMwjN",
      "id": "7vk5e3vY1uw9plTHJAMwjN",
      "images": [
        {
          "height": 640,
          "url": "https://i.scdn.co/image/ab6761610000e5ebbf753c009fd9c2d53351dd3c",
          "width": 640
        },
        {
          "height": 320,
          "url": "https://i.scdn.co/image/ab67616100005174bf753c009fd9c2d53351dd3c",
          "width": 320
        },
        {
          "height": 160,
          "url": "https://i.scdn.co/image/ab6761610000f178bf753c009fd9c2d53351dd3c",
          "width": 160
        }
      ],
      "name": "Alan Walker",
      "popularity": 78,
      "type": "artist",
      "uri": "spotify:artist:7vk5e3vY1uw9plTHJAMwjN"
    },
    {
      "external_urls": {
        "spotify": "https://open.spotify.com/artist/3TOqt5oJwL9BE2NG9MEwDa"
      },
      "followers": {
        "href": null,
        "total": 0
      },
      "genres": [
        "alternative metal",
        "nu metal",
        "rap metal",
        "rock"
      ],
      "href": "https://api.spotify.com/v1/artists/3TOqt5oJwL9BE2NG9MEwDa",
      "id": "3TOqt5oJwL9BE2NG9MEwDa",
      "images": [
        {
          "height": 640,
          "url": "https://i.scdn.co/image/ab6761610000e5eb012addc95f5b2e7283f45446",
          "width": 640
        },
        {
          "height": 320,
          "url": "https://i.scdn.co/image/ab67616100005174012addc95f5b2e7283f45446",
          "width": 320
        },
        {
          "height": 160,
          "url": "https://i.scdn.co/image/ab6761610000f178012addc95f5b2e7283f45446",
          "width": 160
        }
      ],
      "name": "Disturbed",
      "popularity": 71,
      "type": "artist",
      "uri": "spotify:artist:3TOqt5oJwL9BE2NG9MEwDa"
    },
    {
      "external_urls": {
        "spotify": "https://open.spotify.com/artist/2IeMt1qx6ZVt1HFjdfE5tl"
      },
      "followers": {
        "href": null,
        "total": 0
      },
      "genres": [
        "metal cover",
        "otacore"
      ],
      "href": "https://api.spotify.com/v1/artists/2IeMt1qx6ZVt1HFjdfE5tl",
      "id": "2IeMt1qx6ZVt1HFjdfE5tl",
      "images": [
        {
          "height": 640,
          "url": "https://i.scdn.co/image/ab6761610000e5eb1aa3cf1f981687d7bae42829",
          "width": 640
        },
        {
          "height": 320,
          "url": "https://i.scdn.co/image/ab676161000051741aa3cf1f981687d7bae42829",
          "width": 320
        },
        {
          "height": 160,
          "url": "https://i.scdn.co/image/ab6761610000f1781aa3cf1f981687d7bae42829",
          "width": 160
        }
      ],
      "name": "Jonathan Young",
      "popularity": 57,
      "type": "artist",
      "uri": "spotify:artist:2IeMt1qx6ZVt1HFjdfE5tl"
    },
    {
      "external_urls": {
        "spotify": "https://open.spotify.com/artist/40HDiLfKm0tXk2FxlJx6aO"
      },
      "followers": {
        "href": null,
        "total": 0
      },
      "genres": [
        "gaming edm"
      ],
      "href": "https://api.spotify.com/v1/artists/40HDiLfKm0tXk2FxlJx6aO",
      "id": "40HDiLfKm0tXk2FxlJx6aO",
      "images": [
        {
          "height": 640,
          "url": "https://i.scdn.co/image/ab6761610000e5ebc26d337f7ccb56e37109bd0f",
          "width": 640
        },
        {
          "height": 320,
          "url": "https://i.scdn.co/image/ab67616100005174c26d337f7ccb56e37109bd0f",
          "width": 320
        },
        {
          "height": 160,
          "url": "https://i.scdn.co/image/ab6761610000f178c26d337f7ccb56e37109bd0f",
          "width": 160
        }
      ],
      "name": "Jim Yosef",
      "popularity": 51,
      "type": "artist",
      "uri": "spotify:artist:40HDiLfKm0tXk2FxlJx6aO"
    },
    {
      "external_urls": {
        "spotify": "https://open.spotify.com/artist/53XhwfbYqKCa1cC15pYq2q"
      },
      "followers": {
        "href": null,
        "total": 0
      },
      "genres": [
        "modern rock",
        "pop",
        "rock"
      ],
      "href": "https://api.spotify.com/v1/artists/53XhwfbYqKCa1cC15pYq2q",
      "id": "53XhwfbYqKCa1cC15pYq2q",
      "images": [
        {
          "height": 640,
          "url": "https://i.scdn.co/image/ab6761610000e5eb920dc1f617550de8388f368e",
          "width": 640
        },
        {
          "height": 320,
          "url": "https://i.scdn.co/image/ab67616100005174920dc1f617550de8388f368e",
          "width": 320
        },
        {
          "height": 160,
          "url": "https://i.scdn.co/image/ab6761610000f178920dc1f617550de8388f368e",
          "width": 160
        }
      ],
      "name": "Imagine Dragons",
      "popularity": 85,
      "type": "artist",
      "uri": "spotify:artist:53XhwfbYqKCa1cC15pYq2q"
    },
    {
      "external_urls": {
        "spotify": "https://open.spotify.com/artist/3Cpk1xlScqbYhmv5EqoI4Y"
      },
      "followers": {
        "href": null,
        "total": 0
      },
      "genres": [
        "pixie"
      ],
      "href": "https://api.spotify.com/v1/artists/3Cpk1xlScqbYhmv5EqoI4Y",
      "id": "3Cpk1xlScqbYhmv5EqoI4Y",
      "images": [
        {
          "height": 640,
          "url": "https://i.scdn.co/image/ab6761610000e5ebfe0f3ad2c4a002e99e23a490",
          "width": 640
        },
        {
          "height": 320,
          "url": "https://i.scdn.co/image/ab67616100005174fe0f3ad2c4a002e99e23a490",
          "width": 320
        },
        {
          "height": 160,
          "url": "https://i.scdn.co/image/ab6761610000f178fe0f3ad2c4a002e99e23a490",
          "width": 160
        }
      ],
      "name": "First to Eleven",
      "popularity": 49,
      "type": "artist",
      "uri": "spotify:artist:3Cpk1xlScqbYhmv5EqoI4Y"
    },
    {
      "external_urls": {
        "spotify": "https://open.spotify.com/artist/3Ww8GMbCDMAGwJJ2hd7z7z"
      },
      "followers": {
        "href": null,
        "total": 0
      },
      "genres": [
        "indie game soundtrack",
        "pixel",
        "spectra"
      ],
      "href": "https://api.spotify.com/v1/artists/3Ww8GMbCDMAGwJJ2hd7z7z",
      "id": "3Ww8GMbCDMAGwJJ2hd7z7z",
      "images": [
        {
          "height": 640,
          "url": "https://i.scdn.co/image/ab6761610000e5eb1d57e92e8f3fa62e756f9303",
          "width": 640
        },
        {
          "height": 320,
          "url": "https://i.scdn.co/image/ab676161000051741d57e92e8f3fa62e756f9303",
          "width": 320
        },
        {
          "height": 160,
          "url": "https://i.scdn.co/image/ab6761610000f1781d57e92e8f3fa62e756f9303",
          "width": 160
        }
      ],
      "name": "Lena Raine",
      "popularity": 55,
      "type": "artist",
      "uri": "spotify:artist:3Ww8GMbCDMAGwJJ2hd7z7z"
    },
    {
      "external_urls": {
        "spotify": "https://open.spotify.com/artist/0lLY20XpZ9yDobkbHI7u1y"
      },
      "followers": {
        "href": null,
        "total": 0
      },
      "genres": [
        "brostep",
        "complextro",
        "danish electronic",
        "edm",
        "electro house",
        "filthstep",
        "glitch",
        "speedrun"
      ],
      "href": "https://api.spotify.com/v1/artists/0lLY20XpZ9yDobkbHI7u1y",
      "id": "0lLY20XpZ9yDobkbHI7u1y",
      "images": [
        {
          "height": 640,
          "url": "https://i.scdn.co/image/ab6761610000e5eb0fb1220e7e3ace47ebad023e",
          "width": 640
        },
        {
          "height": 320,
          "url": "https://i.scdn.co/image/ab676161000051740fb1220e7e3ace47ebad023e",
          "width": 320
        },
        {
          "height": 160,
          "url": "https://i.scdn.co/image/ab6761610000f1780fb1220e7e3ace47ebad023e",
          "width": 160
        }
      ],
      "name": "Pegboard Nerds",
      "popularity": 50,
      "type": "artist",
      "uri": "spotify:artist:0lLY20XpZ9yDobkbHI7u1y"
    },
    {
      "external_urls": {
        "spotify": "https://open.spotify.com/artist/2KaW48xlLnXC2v8tvyhWsa"
      },
      "followers": {
        "href": null,
        "total": 0
      },
      "genres": [
        "gothic symphonic metal",
        "power metal",
        "symphonic metal"
      ],
      "href": "https://api.spotify.com/v1/artists/2KaW48xlLnXC2v8tvyhWsa",
      "id": "2KaW48xlLnXC2v8tvyhWsa",
      "images": [
        {
          "height": 640,
          "url": "https://i.scdn.co/image/ab6761610000e5eb293f7f4aebb31292f607bf3b",
          "width": 640
        },
        {
          "height": 320,
          "url": "https://i.scdn.co/image/ab67616100005174293f7f4aebb31292f607bf3b",
          "width": 320
        },
        {
          "height": 160,
          "url": "https://i.scdn.co/image/ab6761610000f178293f7f4aebb31292f607bf3b",
          "width": 160
        }
      ],
      "name": "Amaranthe",
      "popularity": 57,
      "type": "artist",
      "uri": "spotify:artist:2KaW48xlLnXC2v8tvyhWsa"
    },
    {
      "external_urls": {
        "spotify": "https://open.spotify.com/artist/6UBA15slIuadJ8h2lPRPos"
      },
      "followers": {
        "href": null,
        "total": 0
      },
      "genres": [
        "detroit hip hop",
        "kansas city hip hop",
        "pop rap"
      ],
      "href": "https://api.spotify.com/v1/artists/6UBA15slIuadJ8h2lPRPos",
      "id": "6UBA15slIuadJ8h2lPRPos",
      "images": [
        {
          "height": 640,
          "url": "https://i.scdn.co/image/ab6761610000e5eb8b1697a78fbe50647333a84f",
          "width": 640
        },
        {
          "height": 320,
          "url": "https://i.scdn.co/image/ab676161000051748b1697a78fbe50647333a84f",
          "width": 320
        },
        {
          "height": 160,
          "url": "https://i.scdn.co/image/ab6761610000f1788b1697a78fbe50647333a84f",
          "width": 160
        }
      ],
      "name": "Tech N9ne",
      "popularity": 65,
      "type": "artist",
      "uri": "spotify:artist:6UBA15slIuadJ8h2lPRPos"
    },
    {
      "external_urls": {
        "spotify": "https://open.spotify.com/artist/7cTfr9nU9kwlKrVxwghbxN"
      },
      "followers": {
        "href": null,
        "total": 0
      },
      "genres": [
        "deep flow",
        "flick hop",
        "underground rap"
      ],
      "href": "https://api.spotify.com/v1/artists/7cTfr9nU9kwlKrVxwghbxN",
      "id": "7cTfr9nU9kwlKrVxwghbxN",
      "images": [
        {
          "height": 640,
          "url": "https://i.scdn.co/image/ab6761610000e5ebadb20daee8012d9484aa37a0",
          "width": 640
        },
        {
          "height": 320,
          "url": "https://i.scdn.co/image/ab67616100005174adb20daee8012d9484aa37a0",
          "width": 320
        },
        {
          "height": 160,
          "url": "https://i.scdn.co/image/ab6761610000f178adb20daee8012d9484aa37a0",
          "width": 160
        }
      ],
      "name": "Snowgoons",
      "popularity": 40,
      "type": "artist",
      "uri": "spotify:artist:7cTfr9nU9kwlKrVxwghbxN"
    },
    {
      "external_urls": {
        "spotify": "https://open.spotify.com/artist/2XnY6NZ6rENbLMYabjkRey"
      },
      "followers": {
        "href": null,
        "total": 0
      },
      "genres": [],
      "href": "https://api.spotify.com/v1/artists/2XnY6NZ6rENbLMYabjkRey",
      "id": "2XnY6NZ6rENbLMYabjkRey",
      "images": [
        {
          "height": 640,
          "url": "https://i.scdn.co/image/ab6761610000e5ebdb993d912e72d58df5e0708c",
          "width": 640
        },
        {
          "height": 320,
          "url": "https://i.scdn.co/image/ab67616100005174db993d912e72d58df5e0708c",
          "width": 320
        },
        {
          "height": 160,
          "url": "https://i.scdn.co/image/ab6761610000f178db993d912e72d58df5e0708c",
          "width": 160
        }
      ],
      "name": "Toby Romeo",
      "popularity": 56,
      "type": "artist",
      "uri": "spotify:artist:2XnY6NZ6rENbLMYabjkRey"
    },
    {
      "external_urls": {
        "spotify": "https://open.spotify.com/artist/2HN1lrc44W3luhSgywJz4b"
      },
      "followers": {
        "href": null,
        "total": 0
      },
      "genres": [
        "metal cover"
      ],
      "href": "https://api.spotify.com/v1/artists/2HN1lrc44W3luhSgywJz4b",
      "id": "2HN1lrc44W3luhSgywJz4b",
      "images": [
        {
          "height": 640,
          "url": "https://i.scdn.co/image/ab6761610000e5eb31e3bfd143e6f08c946f9bee",
          "width": 640
        },
        {
          "height": 320,
          "url": "https://i.scdn.co/image/ab6761610000517431e3bfd143e6f08c946f9bee",
          "width": 320
        },
        {
          "height": 160,
          "url": "https://i.scdn.co/image/ab6761610000f17831e3bfd143e6f08c946f9bee",
          "width": 160
        }
      ],
      "name": "Skar",
      "popularity": 39,
      "type": "artist",
      "uri": "spotify:artist:2HN1lrc44W3luhSgywJz4b"
    },
    {
      "external_urls": {
        "spotify": "https://open.spotify.com/artist/3rExe3A3FzAmYDlQuvW2Wx"
      },
      "followers": {
        "href": null,
        "total": 0
      },
      "genres": [
        "conscious hip hop",
        "philly rap",
        "political hip hop"
      ],
      "href": "https://api.spotify.com/v1/artists/3rExe3A3FzAmYDlQuvW2Wx",
      "id": "3rExe3A3FzAmYDlQuvW2Wx",
      "images": [
        {
          "height": 640,
          "url": "https://i.scdn.co/image/ab6761610000e5ebd547c4d1934dc2a8f3ce5b59",
          "width": 640
        },
        {
          "height": 320,
          "url": "https://i.scdn.co/image/ab67616100005174d547c4d1934dc2a8f3ce5b59",
          "width": 320
        },
        {
          "height": 160,
          "url": "https://i.scdn.co/image/ab6761610000f178d547c4d1934dc2a8f3ce5b59",
          "width": 160
        }
      ],
      "name": "Vinnie Paz",
      "popularity": 52,
      "type": "artist",
      "uri": "spotify:artist:3rExe3A3FzAmYDlQuvW2Wx"
    },
    {
      "external_urls": {
        "spotify": "https://open.spotify.com/artist/5Pwc4xIPtQLFEnJriah9YJ"
      },
      "followers": {
        "href": null,
        "total": 0
      },
      "genres": [
        "piano rock",
        "pop"
      ],
      "href": "https://api.spotify.com/v1/artists/5Pwc4xIPtQLFEnJriah9YJ",
      "id": "5Pwc4xIPtQLFEnJriah9YJ",
      "images": [
        {
          "height": 640,
          "url": "https://i.scdn.co/image/ab6761610000e5eb57138b98e7ddd5a86ee97a9b",
          "width": 640
        },
        {
          "height": 320,
          "url": "https://i.scdn.co/image/ab6761610000517457138b98e7ddd5a86ee97a9b",
          "width": 320
        },
        {
          "height": 160,
          "url": "https://i.scdn.co/image/ab6761610000f17857138b98e7ddd5a86ee97a9b",
          "width": 160
        }
      ],
      "name": "OneRepublic",
      "popularity": 80,
      "type": "artist",
      "uri": "spotify:artist:5Pwc4xIPtQLFEnJriah9YJ"
    },
    {
      "external_urls": {
        "spotify": "https://open.spotify.com/artist/00YTqRClk82aMchQQpYMd5"
      },
      "followers": {
        "href": null,
        "total": 0
      },
      "genres": [
        "american metalcore"
      ],
      "href": "https://api.spotify.com/v1/artists/00YTqRClk82aMchQQpYMd5",
      "id": "00YTqRClk82aMchQQpYMd5",
      "images": [
        {
          "height": 640,
          "url": "https://i.scdn.co/image/ab6761610000e5eb7e59d31a0955945fa8c44cbb",
          "width": 640
        },
        {
          "height": 320,
          "url": "https://i.scdn.co/image/ab676161000051747e59d31a0955945fa8c44cbb",
          "width": 320
        },
        {
          "height": 160,
          "url": "https://i.scdn.co/image/ab6761610000f1787e59d31a0955945fa8c44cbb",
          "width": 160
        }
      ],
      "name": "Our Last Night",
      "popularity": 61,
      "type": "artist",
      "uri": "spotify:artist:00YTqRClk82aMchQQpYMd5"
    },
    {
      "external_urls": {
        "spotify": "https://open.spotify.com/artist/12Chz98pHFMPJEknJQMWvI"
      },
      "followers": {
        "href": null,
        "total": 0
      },
      "genres": [
        "alternative rock",
        "modern rock",
        "permanent wave",
        "rock"
      ],
      "href": "https://api.spotify.com/v1/artists/12Chz98pHFMPJEknJQMWvI",
      "id": "12Chz98pHFMPJEknJQMWvI",
      "images": [
        {
          "height": 640,
          "url": "https://i.scdn.co/image/ab6761610000e5eb0accbbe13e1aa147dd27671c",
          "width": 640
        },
        {
          "height": 320,
          "url": "https://i.scdn.co/image/ab676161000051740accbbe13e1aa147dd27671c",
          "width": 320
        },
        {
          "height": 160,
          "url": "https://i.scdn.co/image/ab6761610000f1780accbbe13e1aa147dd27671c",
          "width": 160
        }
      ],
      "name": "Muse",
      "popularity": 73,
      "type": "artist",
      "uri": "spotify:artist:12Chz98pHFMPJEknJQMWvI"
    },
    {
      "external_urls": {
        "spotify": "https://open.spotify.com/artist/2wX6xSig4Rig5kZU6ePlWe"
      },
      "followers": {
        "href": null,
        "total": 0
      },
      "genres": [
        "big room",
        "dutch house",
        "edm",
        "electro house",
        "indian edm",
        "pop dance",
        "progressive electro house",
        "slap house"
      ],
      "href": "https://api.spotify.com/v1/artists/2wX6xSig4Rig5kZU6ePlWe",
      "id": "2wX6xSig4Rig5kZU6ePlWe",
      "images": [
        {
          "height": 640,
          "url": "https://i.scdn.co/image/ab6761610000e5ebd1db941d6e307ab229651fae",
          "width": 640
        },
        {
          "height": 320,
          "url": "https://i.scdn.co/image/ab67616100005174d1db941d6e307ab229651fae",
          "width": 320
        },
        {
          "height": 160,
          "url": "https://i.scdn.co/image/ab6761610000f178d1db941d6e307ab229651fae",
          "width": 160
        }
      ],
      "name": "KSHMR",
      "popularity": 64,
      "type": "artist",
      "uri": "spotify:artist:2wX6xSig4Rig5kZU6ePlWe"
    }
  ]
}